<?xml version="1.0" encoding="UTF-8" standalone="no"?>
<svg
   xmlns:dc="http://purl.org/dc/elements/1.1/"
   xmlns:cc="http://creativecommons.org/ns#"
   xmlns:rdf="http://www.w3.org/1999/02/22-rdf-syntax-ns#"
   xmlns:svg="http://www.w3.org/2000/svg"
   xmlns="http://www.w3.org/2000/svg"
   xmlns:xlink="http://www.w3.org/1999/xlink"
   xmlns:sodipodi="http://sodipodi.sourceforge.net/DTD/sodipodi-0.dtd"
   xmlns:inkscape="http://www.inkscape.org/namespaces/inkscape"
   width="300"
   height="129"
   id="svg3857"
   viewBox="0 0 300 129"
   sodipodi:version="0.32"
   inkscape:version="1.0beta1 (a4ee55bc41, 2019-11-15)"
   sodipodi:docname="tips-f05.svg"
   version="1.1">
  <defs
     id="defs3">
    <linearGradient
       id="linearGradient3628">
      <stop
         id="stop3629"
         offset="0.0000000"
         style="stop-color:#000000;stop-opacity:1.0000000;" />
      <stop
         id="stop3633"
         offset="0.39660969"
         style="stop-color:#7f7f7f;stop-opacity:1.0000000;" />
      <stop
         id="stop3634"
         offset="0.68130583"
         style="stop-color:#bfbfbf;stop-opacity:1.0000000;" />
      <stop
         id="stop3635"
         offset="0.78264493"
         style="stop-color:#dfdfdf;stop-opacity:1.0000000;" />
      <stop
         id="stop3636"
         offset="0.86468130"
         style="stop-color:#efefef;stop-opacity:1.0000000;" />
      <stop
         id="stop3637"
         offset="0.89295989"
         style="stop-color:#f7f7f7;stop-opacity:1.0000000;" />
      <stop
         id="stop3630"
         offset="1"
         style="stop-color:#fff;stop-opacity:1;" />
    </linearGradient>
    <linearGradient
       gradientUnits="userSpaceOnUse"
       gradientTransform="matrix(0.237277,0,0,4.21448,-1100,0)"
       y2="-5.6264138"
       x2="-1289.2872"
       y1="-71.601784"
       x1="-1289.2872"
       id="linearGradient3631"
       xlink:href="#linearGradient3628" />
    <linearGradient
       id="linearGradient837">
      <stop
         id="stop838"
         offset="0.0000000"
         style="stop-color:#000000;stop-opacity:1.0000000;" />
      <stop
         id="stop846"
         offset="0.11729296"
         style="stop-color:#3f3f3f;stop-opacity:1.0000000;" />
      <stop
         id="stop839"
         offset="0.30868170"
         style="stop-color:#7f7f7f;stop-opacity:1.0000000;" />
      <stop
         id="stop840"
         offset="0.55673057"
         style="stop-color:#bfbfbf;stop-opacity:1.0000000;" />
      <stop
         id="stop841"
         offset="0.68915725"
         style="stop-color:#dfdfdf;stop-opacity:1.0000000;" />
      <stop
         id="stop1490"
         offset="0.77552247"
         style="stop-color:#efefef;stop-opacity:1.0000000;" />
      <stop
         id="stop1491"
         offset="0.85832888"
         style="stop-color:#f7f7f7;stop-opacity:1.0000000;" />
      <stop
         id="stop844"
         offset="1"
         style="stop-color:#fff;stop-opacity:1;" />
    </linearGradient>
    <linearGradient
       gradientUnits="userSpaceOnUse"
       gradientTransform="matrix(0.237277,0,0,4.21448,-1100,0)"
       y2="-5.6264138"
       x2="-1222.1826"
       y1="-71.601784"
       x1="-1222.1826"
       id="linearGradient845"
       xlink:href="#linearGradient837" />
    <linearGradient
       id="linearGradient848">
      <stop
         id="stop849"
         offset="0.0000000"
         style="stop-color:#000000;stop-opacity:1.0000000;" />
      <stop
         id="stop850"
         offset="0.086339884"
         style="stop-color:#3f3f3f;stop-opacity:1.0000000;" />
      <stop
         id="stop851"
         offset="0.23435111"
         style="stop-color:#7f7f7f;stop-opacity:1.0000000;" />
      <stop
         id="stop852"
         offset="0.44844228"
         style="stop-color:#bfbfbf;stop-opacity:1.0000000;" />
      <stop
         id="stop853"
         offset="0.53716785"
         style="stop-color:#dfdfdf;stop-opacity:1.0000000;" />
      <stop
         id="stop854"
         offset="0.64299184"
         style="stop-color:#efefef;stop-opacity:1.0000000;" />
      <stop
         id="stop855"
         offset="0.77809334"
         style="stop-color:#f7f7f7;stop-opacity:1.0000000;" />
      <stop
         id="stop856"
         offset="1"
         style="stop-color:#fff;stop-opacity:1;" />
    </linearGradient>
    <linearGradient
       gradientUnits="userSpaceOnUse"
       gradientTransform="matrix(0.237277,0,0,4.21448,-1100,0)"
       y2="-5.6264138"
       x2="-1155.5962"
       y1="-71.601784"
       x1="-1155.5962"
       id="linearGradient857"
       xlink:href="#linearGradient848" />
    <linearGradient
       id="linearGradient859">
      <stop
         id="stop860"
         offset="0.0000000"
         style="stop-color:#000000;stop-opacity:1.0000000;" />
      <stop
         id="stop861"
         offset="0.47509164"
         style="stop-color:#7f7f7f;stop-opacity:1.0000000;" />
      <stop
         id="stop862"
         offset="0.70159298"
         style="stop-color:#bfbfbf;stop-opacity:1.0000000;" />
      <stop
         id="stop863"
         offset="0.83404475"
         style="stop-color:#dfdfdf;stop-opacity:1.0000000;" />
      <stop
         id="stop864"
         offset="0.89395154"
         style="stop-color:#efefef;stop-opacity:1.0000000;" />
      <stop
         id="stop865"
         offset="0.95385826"
         style="stop-color:#f7f7f7;stop-opacity:1.0000000;" />
      <stop
         id="stop866"
         offset="1"
         style="stop-color:#fff;stop-opacity:1;" />
    </linearGradient>
    <linearGradient
       gradientUnits="userSpaceOnUse"
       gradientTransform="matrix(0.237277,0,0,4.21448,-1100,0)"
       y2="-5.6264138"
       x2="-1354.8553"
       y1="-71.601784"
       x1="-1354.8553"
       id="linearGradient867"
       xlink:href="#linearGradient859" />
    <linearGradient
       id="linearGradient870">
      <stop
         id="stop871"
         offset="0.0000000"
         style="stop-color:#000000;stop-opacity:1.0000000;" />
      <stop
         style="stop-color:#3f3f3f;stop-opacity:1.0000000;"
         offset="0.34958428"
         id="stop1390" />
      <stop
         id="stop872"
         offset="0.60247219"
         style="stop-color:#7f7f7f;stop-opacity:1.0000000;" />
      <stop
         id="stop873"
         offset="0.78190786"
         style="stop-color:#bfbfbf;stop-opacity:1.0000000;" />
      <stop
         id="stop874"
         offset="0.86472428"
         style="stop-color:#dfdfdf;stop-opacity:1.0000000;" />
      <stop
         id="stop875"
         offset="0.93805927"
         style="stop-color:#efefef;stop-opacity:1.0000000;" />
      <stop
         id="stop876"
         offset="0.97619343"
         style="stop-color:#f7f7f7;stop-opacity:1.0000000;" />
      <stop
         id="stop877"
         offset="1"
         style="stop-color:#fff;stop-opacity:1;" />
    </linearGradient>
    <linearGradient
       gradientUnits="userSpaceOnUse"
       gradientTransform="matrix(0.237277,0,0,4.21448,-1100,0)"
       y2="-5.6264138"
       x2="-1417.6329"
       y1="-71.601784"
       x1="-1417.6329"
       id="linearGradient878"
       xlink:href="#linearGradient870" />
    <linearGradient
       id="linearGradient880">
      <stop
         id="stop881"
         offset="0.0000000"
         style="stop-color:#000000;stop-opacity:1.0000000;" />
      <stop
         id="stop882"
         offset="0.050992351"
         style="stop-color:#3f3f3f;stop-opacity:1.0000000;" />
      <stop
         id="stop883"
         offset="0.13840781"
         style="stop-color:#7f7f7f;stop-opacity:1.0000000;" />
      <stop
         id="stop884"
         offset="0.31314144"
         style="stop-color:#bfbfbf;stop-opacity:1.0000000;" />
      <stop
         id="stop885"
         offset="0.41979057"
         style="stop-color:#dfdfdf;stop-opacity:1.0000000;" />
      <stop
         id="stop886"
         offset="0.48934433"
         style="stop-color:#efefef;stop-opacity:1.0000000;" />
      <stop
         id="stop887"
         offset="0.66289622"
         style="stop-color:#f7f7f7;stop-opacity:1.0000000;" />
      <stop
         id="stop888"
         offset="1"
         style="stop-color:#fff;stop-opacity:1;" />
    </linearGradient>
    <linearGradient
       gradientUnits="userSpaceOnUse"
       gradientTransform="matrix(0.237277,0,0,4.21448,-1100,0)"
       y2="-5.6264138"
       x2="-1088.6328"
       y1="-71.601784"
       x1="-1088.6328"
       id="linearGradient889"
       xlink:href="#linearGradient880" />
    <linearGradient
       id="linearGradient891">
      <stop
         id="stop892"
         offset="0.0000000"
         style="stop-color:#000000;stop-opacity:1.0000000;" />
      <stop
         id="stop893"
         offset="0.032569472"
         style="stop-color:#3f3f3f;stop-opacity:1.0000000;" />
      <stop
         id="stop894"
         offset="0.082509324"
         style="stop-color:#7f7f7f;stop-opacity:1.0000000;" />
      <stop
         id="stop895"
         offset="0.15914614"
         style="stop-color:#bfbfbf;stop-opacity:1.0000000;" />
      <stop
         id="stop896"
         offset="0.20343107"
         style="stop-color:#dfdfdf;stop-opacity:1.0000000;" />
      <stop
         id="stop897"
         offset="0.27002886"
         style="stop-color:#efefef;stop-opacity:1.0000000;" />
      <stop
         id="stop898"
         offset="0.33919314"
         style="stop-color:#f7f7f7;stop-opacity:1.0000000;" />
      <stop
         id="stop899"
         offset="1"
         style="stop-color:#fff;stop-opacity:1;" />
    </linearGradient>
    <linearGradient
       gradientUnits="userSpaceOnUse"
       gradientTransform="matrix(0.237277,0,0,4.21448,-1100,0)"
       y2="-5.6264138"
       x2="-1021.6696"
       y1="-71.601784"
       x1="-1021.6696"
       id="linearGradient900"
       xlink:href="#linearGradient891" />
    <linearGradient
       id="linearGradient902">
      <stop
         id="stop903"
         offset="0.0000000"
         style="stop-color:#000000;stop-opacity:1.0000000;" />
      <stop
         style="stop-color:#1f1f1f;stop-opacity:1.0000000;"
         offset="0.30970567"
         id="stop1388" />
      <stop
         id="stop911"
         offset="0.51168764"
         style="stop-color:#3f3f3f;stop-opacity:1.0000000;" />
      <stop
         id="stop904"
         offset="0.69410229"
         style="stop-color:#7f7f7f;stop-opacity:1.0000000;" />
      <stop
         id="stop905"
         offset="0.85670912"
         style="stop-color:#bfbfbf;stop-opacity:1.0000000;" />
      <stop
         id="stop906"
         offset="0.93051559"
         style="stop-color:#dfdfdf;stop-opacity:1.0000000;" />
      <stop
         id="stop907"
         offset="0.96830589"
         style="stop-color:#efefef;stop-opacity:1.0000000;" />
      <stop
         id="stop908"
         offset="0.98964530"
         style="stop-color:#f7f7f7;stop-opacity:1.0000000;" />
      <stop
         id="stop909"
         offset="1"
         style="stop-color:#fff;stop-opacity:1;" />
    </linearGradient>
    <linearGradient
       gradientUnits="userSpaceOnUse"
       gradientTransform="matrix(0.237277,0,0,4.21448,-1100,0)"
       y2="-5.6264138"
       x2="-1484.5962"
       y1="-71.601784"
       x1="-1484.5962"
       id="linearGradient910"
       xlink:href="#linearGradient902" />
    <linearGradient
       inkscape:collect="always"
       xlink:href="#linearGradient3628"
       id="linearGradient3962"
       gradientUnits="userSpaceOnUse"
       gradientTransform="matrix(0.237277,0,0,4.21448,-1100,0)"
       x1="-1289.2872"
       y1="-71.601784"
       x2="-1289.2872"
       y2="-5.6264138" />
    <linearGradient
       inkscape:collect="always"
       xlink:href="#linearGradient837"
       id="linearGradient3964"
       gradientUnits="userSpaceOnUse"
       gradientTransform="matrix(0.237277,0,0,4.21448,-1100,0)"
       x1="-1222.1826"
       y1="-71.601784"
       x2="-1222.1826"
       y2="-5.6264138" />
    <linearGradient
       inkscape:collect="always"
       xlink:href="#linearGradient848"
       id="linearGradient3966"
       gradientUnits="userSpaceOnUse"
       gradientTransform="matrix(0.237277,0,0,4.21448,-1100,0)"
       x1="-1155.5962"
       y1="-71.601784"
       x2="-1155.5962"
       y2="-5.6264138" />
    <linearGradient
       inkscape:collect="always"
       xlink:href="#linearGradient859"
       id="linearGradient3968"
       gradientUnits="userSpaceOnUse"
       gradientTransform="matrix(0.237277,0,0,4.21448,-1100,0)"
       x1="-1354.8553"
       y1="-71.601784"
       x2="-1354.8553"
       y2="-5.6264138" />
    <linearGradient
       inkscape:collect="always"
       xlink:href="#linearGradient870"
       id="linearGradient3970"
       gradientUnits="userSpaceOnUse"
       gradientTransform="matrix(0.237277,0,0,4.21448,-1100,0)"
       x1="-1417.6329"
       y1="-71.601784"
       x2="-1417.6329"
       y2="-5.6264138" />
    <linearGradient
       inkscape:collect="always"
       xlink:href="#linearGradient880"
       id="linearGradient3972"
       gradientUnits="userSpaceOnUse"
       gradientTransform="matrix(0.237277,0,0,4.21448,-1100,0)"
       x1="-1088.6328"
       y1="-71.601784"
       x2="-1088.6328"
       y2="-5.6264138" />
    <linearGradient
       inkscape:collect="always"
       xlink:href="#linearGradient891"
       id="linearGradient3974"
       gradientUnits="userSpaceOnUse"
       gradientTransform="matrix(0.237277,0,0,4.21448,-1100,0)"
       x1="-1021.6696"
       y1="-71.601784"
       x2="-1021.6696"
       y2="-5.6264138" />
    <linearGradient
       inkscape:collect="always"
       xlink:href="#linearGradient902"
       id="linearGradient3976"
       gradientUnits="userSpaceOnUse"
       gradientTransform="matrix(0.237277,0,0,4.21448,-1100,0)"
       x1="-1484.5962"
       y1="-71.601784"
       x2="-1484.5962"
       y2="-5.6264138" />
    <linearGradient
       inkscape:collect="always"
       xlink:href="#linearGradient902"
       id="linearGradient3979"
       gradientUnits="userSpaceOnUse"
       gradientTransform="matrix(0.237277,0,0,4.21448,240.41981,12.217163)"
       x1="-1484.5962"
       y1="-72.469078"
       x2="-1484.5962"
       y2="-4.5117884" />
    <linearGradient
       inkscape:collect="always"
       xlink:href="#linearGradient891"
       id="linearGradient3982"
       gradientUnits="userSpaceOnUse"
       gradientTransform="matrix(0.237277,0,0,4.21448,242.41901,12.217163)"
       x1="-1021.6705"
       y1="-72.468948"
       x2="-1021.6705"
       y2="-4.5119162" />
    <linearGradient
       inkscape:collect="always"
       xlink:href="#linearGradient880"
       id="linearGradient3985"
       gradientUnits="userSpaceOnUse"
       gradientTransform="matrix(0.237277,0,0,4.21448,242.25111,12.217163)"
       x1="-1088.6328"
       y1="-72.468948"
       x2="-1088.6328"
       y2="-5.6264138" />
    <linearGradient
       inkscape:collect="always"
       xlink:href="#linearGradient870"
       id="linearGradient3988"
       gradientUnits="userSpaceOnUse"
       gradientTransform="matrix(0.237277,0,0,4.21448,240.58761,12.217163)"
       x1="-1417.6329"
       y1="-72.469078"
       x2="-1417.6329"
       y2="-4.5117884" />
    <linearGradient
       inkscape:collect="always"
       xlink:href="#linearGradient859"
       id="linearGradient3991"
       gradientUnits="userSpaceOnUse"
       gradientTransform="matrix(0.237277,0,0,4.21448,241.19281,12.217163)"
       x1="-1354.8553"
       y1="-72.468948"
       x2="-1354.8553"
       y2="-4.5119162" />
    <linearGradient
       inkscape:collect="always"
       xlink:href="#linearGradient848"
       id="linearGradient3994"
       gradientUnits="userSpaceOnUse"
       gradientTransform="matrix(0.237277,0,0,4.21448,242.08351,12.217163)"
       x1="-1155.5962"
       y1="-72.468948"
       x2="-1155.5962"
       y2="-5.6264138" />
    <linearGradient
       inkscape:collect="always"
       xlink:href="#linearGradient837"
       id="linearGradient3997"
       gradientUnits="userSpaceOnUse"
       gradientTransform="matrix(0.237277,0,0,4.21448,241.82641,12.217163)"
       x1="-1222.1826"
       y1="-72.468948"
       x2="-1222.1826"
       y2="-5.6264138" />
    <linearGradient
       inkscape:collect="always"
       xlink:href="#linearGradient3628"
       id="linearGradient4000"
       gradientUnits="userSpaceOnUse"
       gradientTransform="matrix(0.237277,0,0,4.21448,241.69201,12.217163)"
       x1="-1289.2872"
       y1="-72.468948"
       x2="-1289.2872"
       y2="-5.6264138" />
  </defs>
  <sodipodi:namedview
     inkscape:window-maximized="0"
     inkscape:window-y="27"
     inkscape:window-x="54"
     inkscape:window-height="1053"
     inkscape:window-width="1866"
     inkscape:guide-bbox="true"
     showguides="true"
     units="px"
     showgrid="false"
     inkscape:document-rotation="0"
     inkscape:current-layer="layer1"
     inkscape:document-units="px"
     inkscape:cy="64.5"
     inkscape:cx="160"
     inkscape:zoom="1.4"
     inkscape:pageshadow="2"
     inkscape:pageopacity="0.0"
     borderopacity="1.0"
     bordercolor="#666666"
     pagecolor="#ffffff"
     id="base"
     inkscape:lockguides="true" />
  <metadata
     id="metadata4">
    <rdf:RDF>
      <cc:Work
         rdf:about="">
        <dc:format>image/svg+xml</dc:format>
        <dc:type
           rdf:resource="http://purl.org/dc/dcmitype/StillImage" />
        <dc:title />
      </cc:Work>
    </rdf:RDF>
  </metadata>
  <g
     inkscape:label="Layer 1"
     inkscape:groupmode="layer"
     id="layer1">
    <rect
       transform="matrix(0,-1,-1,0,0,0)"
       y="-293.20178"
       x="-80.351082"
       height="286.40356"
       width="16.124653"
       id="rect3632"
       style="fill:url(#linearGradient4000);fill-opacity:0.75;fill-rule:evenodd;stroke:none;stroke-width:1pt" />
    <rect
       transform="matrix(0,-1,-1,0,0,0)"
       y="-293.20178"
       x="-64.294464"
       height="286.40356"
       width="16.124653"
       id="rect836"
       style="fill:url(#linearGradient3997);fill-opacity:0.75;fill-rule:evenodd;stroke:none;stroke-width:1pt" />
    <rect
       transform="matrix(0,-1,-1,0,0,0)"
       y="-293.20178"
       x="-48.237877"
       height="286.40356"
       width="16.124653"
       id="rect847"
       style="fill:url(#linearGradient3994);fill-opacity:0.75;fill-rule:evenodd;stroke:none;stroke-width:1pt" />
    <rect
       transform="matrix(0,-1,-1,0,0,0)"
       y="-293.20178"
       x="-96.407692"
       height="286.40356"
       width="16.124653"
       id="rect858"
       style="fill:url(#linearGradient3991);fill-opacity:0.75;fill-rule:evenodd;stroke:none;stroke-width:1pt" />
    <rect
       transform="matrix(0,-1,-1,0,0,0)"
       y="-293.20178"
       x="-112.4643"
       height="286.40356"
       width="16.124653"
       id="rect869"
       style="fill:url(#linearGradient3988);fill-opacity:0.75;fill-rule:evenodd;stroke:none;stroke-width:1pt" />
    <rect
       transform="matrix(0,-1,-1,0,0,0)"
       y="-293.20178"
       x="-32.181324"
       height="286.40356"
       width="16.124653"
       id="rect879"
       style="fill:url(#linearGradient3985);fill-opacity:0.75;fill-rule:evenodd;stroke:none;stroke-width:1pt" />
    <rect
       transform="matrix(0,-1,-1,0,0,0)"
       y="-293.20178"
       x="-16.124653"
       height="286.40356"
       width="16.124653"
       id="rect890"
       style="fill:url(#linearGradient3982);fill-opacity:0.75;fill-rule:evenodd;stroke:none;stroke-width:1pt" />
    <rect
       transform="matrix(0,-1,-1,0,0,0)"
       y="-293.20178"
       x="-128.5209"
       height="286.40356"
       width="16.124653"
       id="rect901"
       style="fill:url(#linearGradient3979);fill-opacity:0.75;fill-rule:evenodd;stroke:none;stroke-width:1pt" />
  </g>
</svg>
