<?xml version="1.0" encoding="UTF-8" standalone="no"?>
<!-- Created with Inkscape (http://www.inkscape.org/) -->
<svg
   xmlns:dc="http://purl.org/dc/elements/1.1/"
   xmlns:cc="http://web.resource.org/cc/"
   xmlns:rdf="http://www.w3.org/1999/02/22-rdf-syntax-ns#"
   xmlns:svg="http://www.w3.org/2000/svg"
   xmlns="http://www.w3.org/2000/svg"
   xmlns:sodipodi="http://sodipodi.sourceforge.net/DTD/sodipodi-0.dtd"
   xmlns:inkscape="http://www.inkscape.org/namespaces/inkscape"
   width="217.73384"
   height="210.57721"
   id="svg2539"
   sodipodi:version="0.32"
   inkscape:version="0.44+devel"
   sodipodi:modified="true"
   version="1.0">
  <defs
     id="defs2541" />
  <sodipodi:namedview
     id="base"
     pagecolor="#ffffff"
     bordercolor="#666666"
     borderopacity="1.0"
     gridtolerance="10000"
     guidetolerance="10"
     objecttolerance="10"
     inkscape:pageopacity="0.0"
     inkscape:pageshadow="2"
     inkscape:zoom="1"
     inkscape:cx="194"
     inkscape:cy="121"
     inkscape:document-units="px"
     inkscape:current-layer="layer1"
     inkscape:window-width="640"
     inkscape:window-height="538"
     inkscape:window-x="3"
     inkscape:window-y="28" />
  <metadata
     id="metadata2544">
    <rdf:RDF>
      <cc:Work
         rdf:about="">
        <dc:format>image/svg+xml</dc:format>
        <dc:type
           rdf:resource="http://purl.org/dc/dcmitype/StillImage" />
      </cc:Work>
    </rdf:RDF>
  </metadata>
  <g
     inkscape:label="Layer 1"
     inkscape:groupmode="layer"
     id="layer1"
     transform="translate(-405.41879,-438.50213)">
    <g
       id="g8691"
       transform="translate(328.13959,-1946.2381)">
      <rect
         y="2387.0576"
         x="79.596596"
         height="205.94243"
         width="213.09906"
         id="rect7963"
         style="opacity:1;fill:#b600ff;fill-opacity:1;stroke:#000000;stroke-width:4.63478422;stroke-linecap:round;stroke-linejoin:miter;stroke-miterlimit:4;stroke-dasharray:none;stroke-opacity:1" />
      <path
         sodipodi:nodetypes="cssss"
         id="path7933"
         d="M 135.38877,2478.1147 C 121.88908,2492.5307 147.9759,2544.017 166.53202,2561.3937 C 185.08821,2578.7704 215.08227,2579.8004 228.58197,2565.3844 C 242.08166,2550.9684 239.08699,2521.1065 220.5308,2503.7297 C 201.97468,2486.3531 148.88847,2463.6987 135.38877,2478.1147 z "
         style="fill:#00ff00;fill-opacity:1;fill-rule:evenodd;stroke:#000000;stroke-width:5.31476736;stroke-linecap:butt;stroke-linejoin:round;stroke-miterlimit:4;stroke-dasharray:none;stroke-opacity:1" />
      <g
         transform="matrix(0.318482,-1.091813,1.261005,0.367835,-2521.781,2113.04)"
         id="g7935">
        <path
           style="fill:#00ffff;fill-opacity:1;fill-rule:evenodd;stroke:#000000;stroke-width:5;stroke-linecap:butt;stroke-linejoin:round;stroke-miterlimit:4;stroke-dasharray:none;stroke-opacity:1"
           d="M 335.23211,2074.5 L 261.35711,2074.5 C 267.19063,2090.8911 282.65622,2103.5 298.29461,2103.5 C 313.933,2103.5 329.39859,2090.8911 335.23211,2074.5 z "
           id="path7937" />
        <path
           style="fill:#ffc700;fill-opacity:1;fill-rule:evenodd;stroke:#000000;stroke-width:5;stroke-linecap:butt;stroke-linejoin:round;stroke-miterlimit:4;stroke-dasharray:none;stroke-opacity:1"
           d="M 326.85711,2020.5 L 269.73211,2020.5 C 263.16882,2034.6075 258.79461,2050.5298 258.79461,2061 C 258.79461,2065.6841 259.82337,2070.1905 261.35711,2074.5 C 261.35711,2074.5 281.38836,2083.5 299.85711,2083.5 C 318.32586,2083.5 335.23211,2074.5 335.23211,2074.5 C 336.76585,2070.1905 337.79461,2065.6841 337.79461,2061 C 337.79461,2050.5298 333.4204,2034.6075 326.85711,2020.5 z "
           id="path7939"
           sodipodi:nodetypes="ccscscsc" />
        <path
           style="fill:#00ffff;fill-opacity:1;fill-rule:evenodd;stroke:#000000;stroke-width:5;stroke-linecap:butt;stroke-linejoin:round;stroke-miterlimit:4;stroke-dasharray:none;stroke-opacity:1"
           d="M 298.29461,1990.5 C 287.73509,1990.5 277.27308,2004.291 269.73211,2020.5 C 269.73211,2020.5 284.57586,2027.5 298.85711,2027.5 C 313.13836,2027.5 326.85711,2020.5 326.85711,2020.5 C 319.31614,2004.291 308.85413,1990.5 298.29461,1990.5 z "
           id="path7941"
           sodipodi:nodetypes="ccscc" />
        <path
           sodipodi:type="arc"
           style="opacity:1;fill:#00ff00;fill-opacity:1;stroke:#000000;stroke-width:1;stroke-linecap:round;stroke-linejoin:miter;stroke-miterlimit:4;stroke-dasharray:none;stroke-opacity:1"
           id="path7943"
           sodipodi:cx="282.5"
           sodipodi:cy="2044"
           sodipodi:rx="7.2680554"
           sodipodi:ry="8"
           d="M 289.76806 2044 A 7.2680554 8 0 1 1  275.23194,2044 A 7.2680554 8 0 1 1  289.76806 2044 z"
           transform="matrix(1.167562,0.435188,-0.470338,1.111144,911.5514,-349.1189)" />
        <path
           sodipodi:type="arc"
           style="opacity:1;fill:#00ff00;fill-opacity:1;stroke:#000000;stroke-width:1;stroke-linecap:round;stroke-linejoin:miter;stroke-miterlimit:4;stroke-dasharray:none;stroke-opacity:1"
           id="path7945"
           sodipodi:cx="316"
           sodipodi:cy="2044.5"
           sodipodi:rx="6.7680554"
           sodipodi:ry="7.5"
           d="M 322.76806 2044.5 A 6.7680554 7.5 0 1 1  309.23194,2044.5 A 6.7680554 7.5 0 1 1  322.76806 2044.5 z"
           transform="matrix(1.299723,-0.164525,0.22742,1.23294,-560.6732,-423.7563)" />
        <path
           sodipodi:type="arc"
           style="opacity:1;fill:#00ff00;fill-opacity:1;stroke:#000000;stroke-width:1;stroke-linecap:round;stroke-linejoin:miter;stroke-miterlimit:4;stroke-dasharray:none;stroke-opacity:1"
           id="path7947"
           sodipodi:cx="301.5"
           sodipodi:cy="2068.5"
           sodipodi:rx="9.5"
           sodipodi:ry="9.3479166"
           d="M 311 2068.5 A 9.5 9.3479166 0 1 1  292,2068.5 A 9.5 9.3479166 0 1 1  311 2068.5 z"
           transform="matrix(0.975363,0,0,1.01537,6.18263,-30.29247)" />
      </g>
      <g
         transform="matrix(1.1733,-0.727174,0.70314,1.134522,-1335.422,264.1625)"
         id="g7949">
        <path
           style="fill:#ff80ff;fill-opacity:1;fill-rule:evenodd;stroke:#000000;stroke-width:5;stroke-linecap:butt;stroke-linejoin:round;stroke-miterlimit:4;stroke-dasharray:none;stroke-opacity:1"
           d="M 138.23212,2080.1532 L 64.357121,2080.1532 C 70.190641,2096.5443 85.656231,2109.1532 101.29462,2109.1532 C 116.93301,2109.1532 132.3986,2096.5443 138.23212,2080.1532 z "
           id="path7951" />
        <path
           style="fill:#ffff00;fill-opacity:1;fill-rule:evenodd;stroke:#000000;stroke-width:5;stroke-linecap:butt;stroke-linejoin:round;stroke-miterlimit:4;stroke-dasharray:none;stroke-opacity:1"
           d="M 129.85712,2026.1532 L 72.732121,2026.1532 C 66.168831,2040.2607 61.794621,2056.183 61.794621,2066.6532 C 61.794621,2071.3373 62.823381,2075.8437 64.357121,2080.1532 C 64.357121,2080.1532 84.388371,2089.1532 102.85712,2089.1532 C 121.32587,2089.1532 138.23212,2080.1532 138.23212,2080.1532 C 139.76586,2075.8437 140.79462,2071.3373 140.79462,2066.6532 C 140.79462,2056.183 136.42041,2040.2607 129.85712,2026.1532 z "
           id="path7953"
           sodipodi:nodetypes="ccscscsc" />
        <path
           style="fill:#ff80ff;fill-opacity:1;fill-rule:evenodd;stroke:#000000;stroke-width:5;stroke-linecap:butt;stroke-linejoin:round;stroke-miterlimit:4;stroke-dasharray:none;stroke-opacity:1"
           d="M 101.29462,1996.1532 C 90.735101,1996.1532 80.273091,2009.9442 72.732121,2026.1532 C 72.732121,2026.1532 87.575871,2033.1532 101.85712,2033.1532 C 116.13837,2033.1532 129.85712,2026.1532 129.85712,2026.1532 C 122.31615,2009.9442 111.85414,1996.1532 101.29462,1996.1532 z "
           id="path7955"
           sodipodi:nodetypes="ccscc" />
        <path
           sodipodi:type="star"
           style="opacity:1;fill:#00ffff;fill-opacity:1;stroke:#000000;stroke-width:1;stroke-linecap:round;stroke-linejoin:miter;stroke-miterlimit:4;stroke-dasharray:none;stroke-opacity:1"
           id="path7957"
           sodipodi:sides="5"
           sodipodi:cx="49"
           sodipodi:cy="1788"
           sodipodi:r1="10.687434"
           sodipodi:r2="5"
           sodipodi:arg1="1.1717916"
           sodipodi:arg2="1.8001101"
           inkscape:flatsided="false"
           inkscape:rounded="0"
           inkscape:randomized="0"
           d="M 53.152084,1797.8479 L 47.863453,1792.8691 L 40.91714,1794.992 L 44.017986,1788.4237 L 39.852434,1782.4734 L 47.057493,1783.3928 L 51.429354,1777.5923 L 52.781478,1784.7289 L 59.648989,1787.0943 L 53.279589,1790.5856 L 53.152084,1797.8479 z "
           transform="translate(33.85101,260.6521)" />
        <path
           sodipodi:type="star"
           style="opacity:1;fill:#00ffff;fill-opacity:1;stroke:#000000;stroke-width:1;stroke-linecap:round;stroke-linejoin:miter;stroke-miterlimit:4;stroke-dasharray:none;stroke-opacity:1"
           id="path7959"
           sodipodi:sides="5"
           sodipodi:cx="49"
           sodipodi:cy="1788"
           sodipodi:r1="10"
           sodipodi:r2="5"
           sodipodi:arg1="0.92729522"
           sodipodi:arg2="1.5556137"
           inkscape:flatsided="false"
           inkscape:rounded="0"
           inkscape:randomized="0"
           d="M 55,1796 L 49.07591,1792.9994 L 43.24565,1796.1785 L 44.268723,1789.6171 L 39.443616,1785.0546 L 46,1784 L 48.84818,1778.0012 L 51.877175,1783.9108 L 58.462554,1784.7658 L 53.778192,1789.4727 L 55,1796 z "
           transform="translate(51.85101,284.652)" />
        <path
           sodipodi:type="star"
           style="opacity:1;fill:#00ffff;fill-opacity:1;stroke:#000000;stroke-width:1;stroke-linecap:round;stroke-linejoin:miter;stroke-miterlimit:4;stroke-dasharray:none;stroke-opacity:1"
           id="path7961"
           sodipodi:sides="5"
           sodipodi:cx="49"
           sodipodi:cy="1788"
           sodipodi:r1="9.9718571"
           sodipodi:r2="5"
           sodipodi:arg1="0.66485448"
           sodipodi:arg2="1.293173"
           inkscape:flatsided="false"
           inkscape:rounded="0"
           inkscape:randomized="0"
           d="M 56.847917,1794.1521 L 50.370354,1792.8085 L 45.574161,1797.3649 L 44.850262,1790.7892 L 39.034798,1787.6357 L 45.064967,1784.9153 L 46.267006,1778.41 L 50.717754,1783.3043 L 57.276119,1782.4373 L 53.996663,1788.1826 L 56.847917,1794.1521 z "
           transform="translate(70.79461,262.6532)" />
      </g>
    </g>
  </g>
</svg>
