<?xml version="1.0" encoding="UTF-8" standalone="no"?>
<svg
   xmlns:dc="http://purl.org/dc/elements/1.1/"
   xmlns:cc="http://creativecommons.org/ns#"
   xmlns:rdf="http://www.w3.org/1999/02/22-rdf-syntax-ns#"
   xmlns:svg="http://www.w3.org/2000/svg"
   xmlns="http://www.w3.org/2000/svg"
   xmlns:sodipodi="http://sodipodi.sourceforge.net/DTD/sodipodi-0.dtd"
   xmlns:inkscape="http://www.inkscape.org/namespaces/inkscape"
   sodipodi:docname="advanced-f13.svg"
   inkscape:version="1.0beta1 (a4ee55bc41, 2019-11-15)"
   sodipodi:version="0.32"
   id="svg2148"
   viewBox="0 0 300 134"
   height="134"
   width="300"
   version="1.1">
  <defs
     id="defs3" />
  <sodipodi:namedview
     inkscape:window-maximized="0"
     inkscape:window-y="27"
     inkscape:window-x="54"
     inkscape:window-height="1016"
     inkscape:window-width="1866"
     inkscape:guide-bbox="true"
     showguides="true"
     units="px"
     showgrid="false"
     inkscape:document-rotation="0"
     inkscape:current-layer="layer1"
     inkscape:document-units="px"
     inkscape:cy="17.919181"
     inkscape:cx="179.17194"
     inkscape:zoom="2.8284271"
     inkscape:pageshadow="2"
     inkscape:pageopacity="0.0"
     borderopacity="1.0"
     bordercolor="#666666"
     pagecolor="#ffffff"
     id="base"
     inkscape:lockguides="true" />
  <metadata
     id="metadata4">
    <rdf:RDF>
      <cc:Work
         rdf:about="">
        <dc:format>image/svg+xml</dc:format>
        <dc:type
           rdf:resource="http://purl.org/dc/dcmitype/StillImage" />
        <dc:title />
      </cc:Work>
    </rdf:RDF>
  </metadata>
  <g
     id="layer1"
     inkscape:groupmode="layer"
     inkscape:label="Layer 1">
    <text
       id="text2796"
       y="6"
       x="54.970478"
       style="font-style:normal;font-weight:normal;line-height:0%;font-family:'Liberation Sans',Arial,sans-serif;text-align:center;writing-mode:lr-tb;text-anchor:middle;fill:#000000;fill-opacity:1;stroke:none;stroke-width:3pt;stroke-linecap:butt;stroke-linejoin:miter;stroke-opacity:1"
       xml:space="preserve"><tspan
         id="tspan2797"
         sodipodi:role="line"
         y="6"
         x="54.970478"
         style="font-size:6px;line-height:1.1;text-align:center;text-anchor:middle">Original</tspan></text>
    <text
       id="text2799"
       y="6"
       x="149.85327"
       style="font-style:normal;font-weight:normal;line-height:0%;font-family:'Liberation Sans',Arial,sans-serif;text-align:center;writing-mode:lr-tb;text-anchor:middle;fill:#000000;fill-opacity:1;stroke:none;stroke-width:3pt;stroke-linecap:butt;stroke-linejoin:miter;stroke-opacity:1"
       xml:space="preserve"><tspan
         id="tspan2800"
         sodipodi:role="line"
         y="6"
         x="149.85327"
         style="font-size:6px;line-height:1.1;text-align:center;text-anchor:middle">Slight simplification</tspan></text>
    <text
       id="text2802"
       y="6"
       x="245.08183"
       style="font-style:normal;font-weight:normal;line-height:0%;font-family:'Liberation Sans',Arial,sans-serif;text-align:center;writing-mode:lr-tb;text-anchor:middle;fill:#000000;fill-opacity:1;stroke:none;stroke-width:3pt;stroke-linecap:butt;stroke-linejoin:miter;stroke-opacity:1"
       xml:space="preserve"><tspan
         id="tspan2803"
         sodipodi:role="line"
         y="6"
         x="245.08183"
         style="font-size:6px;line-height:1.1;text-align:center;text-anchor:middle">Aggressive simplification</tspan></text>
    <path
       id="path2786"
       d="m 92.283403,92.1944 0.321504,9.6448 -1.286013,4.0724 -1.607517,0.6431 v 3.8581 l -0.964508,-0.1072 0.214338,4.8226 -1.714683,0.2144 -0.857342,10.6095 6.53723,4.1795 -1.714684,2.6791 -10.716772,-1.9288 -10.395263,1.9288 -1.714684,-2.6791 5.251218,-3.3221 -5.787055,-1.179 -11.252609,2.3575 v -1.3928 l 7.073067,-5.3586 -1.929017,-18.8615 c -1.21457,-0.2143 -2.393411,-0.5359 -3.536533,-0.9646 l -1.500351,-16.0752 -2.57202,-0.4287 -1.178846,-3.3222 -0.964509,0.2144 -2.464859,33.0079 -2.036184,0.5359 9.109252,5.894 -1.178844,3.0006 -14.789141,-3.215 -6.001392,1.3934 -0.428671,4.7155 5.465555,4.9293 c -0.285781,0.2862 -0.464395,0.679 -0.535837,1.179 -0.07145,0.5 -0.285781,0.7503 -0.643009,0.7503 -0.214333,0 -0.357223,-0.0359 -0.428671,-0.1072 l -9.216422,-1.6077 -9.859425,1.7149 -0.857342,-1.9293 5.46555,-4.715 -1.178841,-12.2172 h -1.393184 c -0.14289,-1.2148 -0.250057,-2.4292 -0.3215,-3.6436 -0.07145,-1.1431 -0.14289,-2.3221 -0.214337,-3.5365 l -1.178842,-0.8575 -2.250526,-4.0724 0.643009,-11.7884 H 16.40868 l 1.286013,-7.7161 c 0.285781,-0.8574 0.714452,-1.5005 1.286013,-1.9293 0.643004,-0.4287 1.321734,-0.7498 2.036183,-0.9641 0.785899,-0.2144 1.571793,-0.3933 2.357692,-0.5359 0.857342,-0.1431 1.643236,-0.3574 2.357688,-0.6431 l 0.535837,2.3575 -5.787054,1.3934 c -0.428671,0.357 -0.643004,0.7856 -0.643004,1.2861 l -0.857342,4.3935 h 2.572025 v -1.6072 h 2.143355 v 6.3227 h 10.288096 v -6.3227 h 2.143354 v 1.6072 h 2.572026 l -0.964514,-4.715 c -0.07144,-0.3574 -0.214332,-0.6076 -0.42867,-0.7503 -0.142891,-0.143 -0.285781,-0.2856 -0.428671,-0.4287 l -5.894221,-1.3934 0.643009,-2.1431 6.215725,1.7144 c 0.571561,0.2862 1.107399,0.7862 1.607512,1.5006 v -6.9658 c -0.357223,0.5713 -0.857342,1.0718 -1.500346,1.5 -0.643008,0.3574 -1.321736,0.6431 -2.036188,0.8575 -0.28578,-1.1431 -0.42867,-2.2504 -0.42867,-3.3222 v -1.2862 c 0,-0.5 0.07145,-1.0713 0.214338,-1.7144 0,-0.7143 -0.178615,-1.1431 -0.535838,-1.2861 -0.28578,-0.1426 -0.643009,-0.2144 -1.07168,-0.2144 0.142891,0.3574 0.250057,0.7503 0.321505,1.179 0.07144,0.3574 0.107166,0.7857 0.107166,1.2862 0,1.7857 -0.571561,3.3221 -1.714683,4.6078 -1.143123,1.2149 -2.536302,1.8221 -4.179538,1.8221 -1.571793,0 -2.929253,-0.6072 -4.072376,-1.8221 -1.143117,-1.2857 -1.714678,-2.8221 -1.714678,-4.6078 0,-1.0005 0.178609,-1.8221 0.535837,-2.4652 -0.428671,0 -0.821618,0.0718 -1.178846,0.2144 -0.357223,0.143 -0.535837,0.5 -0.535837,1.0718 v 0.2143 c 0.214333,1.2144 0.321504,2.1791 0.321504,2.8934 0,1.0006 -0.214338,2.1437 -0.643009,3.4294 -0.785894,-0.2144 -1.607512,-0.6072 -2.464854,-1.1785 -0.785899,-0.5718 -1.250293,-1.2862 -1.393184,-2.1437 -0.14289,-0.5713 -0.214333,-1 -0.214333,-1.2862 0,-1.3574 0.571562,-2.5005 1.714684,-3.4293 0.857342,-0.5 1.750402,-0.7501 2.679192,-0.7501 l 1.071674,0.1071 -1.393179,-32.5787 15.646485,-4.2868 c -1.21457,-0.7143 -2.179078,-1.7503 -2.89353,-3.1077 -0.714451,-1.3575 -1.071674,-2.858 -1.071674,-4.5012 0,-2.5005 0.714451,-4.5724 2.143354,-6.2157 1.500346,-1.7147 3.286472,-2.5721 5.358384,-2.5721 2.071907,0 3.858033,0.8574 5.358383,2.5721 1.500346,1.6433 2.250521,3.7152 2.250521,6.2157 0,1.6432 -0.392947,3.1437 -1.178846,4.5012 -0.714451,1.3574 -1.67896,2.3934 -2.893525,3.1077 l 16.075151,4.2868 -0.214333,5.4652 4.822546,-1.1785 0.643004,2.3575 c -0.500113,0.2144 -0.821618,0.5718 -0.964508,1.0719 -0.14289,0.4287 -0.214338,0.9287 -0.214338,1.5 0,0.7862 0.07145,1.5718 0.214338,2.358 0.214333,0.7856 0.392947,1.3216 0.535837,1.6072 h 6.108559 c 0.571561,-1.6431 0.857342,-3.0006 0.857342,-4.0721 0,-0.929 -0.214338,-1.6075 -0.643008,-2.0362 -0.214334,-0.2144 -0.392948,-0.3575 -0.535838,-0.4288 l 0.535838,-2.3575 11.252609,2.3575 2.143354,21.8624 h 0.750176 l -0.214338,2.6792 c 1.000232,1.3575 1.500347,2.7862 1.500347,4.2868 0,0.7143 -0.107168,1.3215 -0.321501,1.8215 -0.357228,0.9288 -0.893066,1.7503 -1.607517,2.4652 -0.714452,0.6426 -1.500346,1.1431 -2.357688,1.5001 l 7.073067,1.9292 c 0.357224,0.2144 0.750175,0.4641 1.178843,0.7503 0.42867,0.2856 0.678731,0.7498 0.750174,1.3928 l 2.250521,10.0741 z M 39.449732,47.6124 33.555511,36.0383 c -1.571793,0.5 -3.17931,0.9646 -4.822546,1.3934 -1.571793,0.4287 -3.17931,0.8569 -4.822546,1.2857 l 1.178846,28.9355 c 0.357223,-0.1431 0.678727,-0.3216 0.964508,-0.536 0.357223,-0.2856 0.714452,-0.5 1.071675,-0.643 V 42.2538 h 2.464859 v 24.2201 c 0.928784,0.143 1.714683,0.4646 2.357687,0.9646 0.714451,0.5 1.250289,1.1431 1.607517,1.9288 0.285781,-0.0713 0.785894,-0.1071 1.500346,-0.1071 0.714451,0 1.21457,0.0358 1.50035,0.1071 l 2.893525,-1.1785 z m 50.154479,36.2229 c -0.07144,-0.4288 -0.250057,-0.8216 -0.535837,-1.179 -0.214338,-0.4288 -0.643009,-0.7144 -1.286013,-0.8575 l -7.287405,-1.8216 -7.394567,1.8216 c -0.643009,0.1431 -1.071679,0.3931 -1.286012,0.7503 -0.142891,0.2856 -0.321505,0.7144 -0.535842,1.2862 l -1.286008,6.0011 h 2.893524 l 0.321505,-3.9652 2.250521,0.2144 -1.82185,20.7907 13.717463,1.0718 -1.82185,-21.8625 2.250521,-0.2144 0.535837,3.9652 h 2.786359 z M 52.631358,37.4317 c -1.643236,-0.4288 -3.286477,-0.8934 -4.929713,-1.3934 l -5.894221,11.5741 v 20.5764 l 9.216422,3.0005 2.464854,-27.7565 3.750871,-0.7502 0.3215,-3.9652 z M 41.807424,70.975 v 43.8317 l 5.358384,-1.8221 2.893525,-39.1162 z M 66.563159,58.7578 c -1.000232,-2.0006 -2.071911,-4.0365 -3.215032,-6.1084 -1.071676,-2.0718 -1.607514,-4.3939 -1.607514,-6.9658 0,-0.7148 0.03572,-1.2502 0.107167,-1.6077 -0.142891,0.0713 -0.535838,0.1785 -1.178846,0.3216 -0.571562,0.143 -1.214566,0.3215 -1.929017,0.5359 -0.643004,0.1426 -1.250289,0.2856 -1.82185,0.4287 -0.571561,0.0713 -0.928789,0.1072 -1.07168,0.1072 l -2.786358,30.7571 3.322201,0.2143 1.393179,-25.2918 2.464854,0.2144 -1.39318,25.399 c 1.21457,0 2.464859,-0.1072 3.750872,-0.3216 1.286013,-0.2143 2.464854,-0.679 3.536534,-1.3933 -1.286013,-1.7149 -1.929022,-3.7868 -1.929022,-6.2156 0,-1.7149 0.250062,-3.4652 0.750175,-5.2513 0.500119,-1.7862 1.035956,-3.3938 1.607517,-4.8227 z m 13.610297,-13.2885 -6.001392,-1.179 c 0.07145,0.2856 0.107166,0.5713 0.107166,0.8574 v 0.6431 c 0,1.2144 -0.178609,2.3934 -0.535837,3.5365 -0.285781,1.0713 -0.678728,2.1431 -1.178846,3.215 -0.500114,1 -1.035951,2.0359 -1.607512,3.1077 -0.500119,1.0001 -1.000232,2.036 -1.500351,3.1078 -0.714451,1.5718 -1.357455,3.2149 -1.929016,4.9298 -0.571561,1.6432 -0.857342,3.3222 -0.857342,5.0371 0,1 0.178614,2.1431 0.535837,3.4293 0.785899,1.7144 2.000464,2.8934 3.643704,3.5365 1.643237,0.5713 3.357921,0.9287 5.144047,1.0718 -0.357223,-0.4288 -0.714451,-0.9293 -1.071675,-1.5006 -0.357228,-0.5718 -0.607285,-1.1431 -0.750175,-1.7149 -0.07144,-0.2856 -0.14289,-0.5354 -0.214333,-0.7497 0,-0.2144 0,-0.4647 0,-0.7503 0,-0.6431 0.07144,-1.2503 0.214333,-1.8221 0.214338,-0.5713 0.464395,-1.1072 0.750175,-1.6072 l -0.107168,-2.7867 1.71468,-0.2144 -0.75017,-14.2531 h 2.464854 l 0.750175,13.9319 1.071675,-0.2142 h 1.929021 z m -5.251217,33.6505 c -1.21457,-0.1431 -2.429135,-0.3575 -3.643704,-0.6431 -1.143118,-0.357 -2.179074,-0.8929 -3.107863,-1.6072 -1.428899,1 -2.964973,1.6431 -4.608209,1.9287 -1.571793,0.2857 -3.17931,0.4287 -4.822546,0.4287 l 1.714684,20.2548 7.394571,2.3575 h 0.535837 v -0.4287 L 68.81368,92.1944 C 68.599342,92.0513 68.349286,91.98 68.063505,91.98 h -0.750174 l 2.143353,-9.8597 c 0.142891,-0.643 0.392952,-1.1072 0.750176,-1.3928 0.42867,-0.2862 0.821617,-0.5359 1.178846,-0.7503 z m -40.295053,32.7935 0.214338,-3.8582 c 0.07144,-1.286 0.107166,-2.5363 0.107166,-3.7512 0,-1.4287 -0.07144,-2.8575 -0.214333,-4.2862 -0.07145,-1.4293 -0.28578,-2.7868 -0.643009,-4.0724 H 23.588914 c -0.357223,1.3574 -0.60728,2.7503 -0.75017,4.1795 -0.07145,1.3575 -0.107172,2.7504 -0.107172,4.1791 0,1.4293 0.03572,2.858 0.107172,4.2868 0.07144,1.4292 0.178609,2.8221 0.321499,4.1795 H 34.627186 Z M 74.172064,35.1809 c -0.214333,1.2149 -0.785894,2.3934 -1.714684,3.5365 -0.857341,1.1431 -1.893292,1.8579 -3.107862,2.1436 -0.285781,0.0713 -0.714452,0.1072 -1.286013,0.1072 -1.929016,0 -3.572257,-0.8575 -4.929713,-2.5724 -0.357223,-0.5713 -0.643003,-1.1072 -0.857341,-1.6072 -0.214333,-0.5 -0.357224,-1.0359 -0.428671,-1.6077 h -1.393179 v -0.7503 c 0,-1.7857 0.357223,-3.4293 1.071674,-4.9294 0.714452,-1.5005 1.857574,-2.7508 3.429367,-3.7508 0.571562,-0.2862 1.21457,-0.4287 1.929021,-0.4287 0.714447,-0.0718 1.428899,-0.1072 2.14335,-0.1072 1.643241,0.3569 2.89353,1 3.750872,1.9288 0.928784,0.9287 1.571793,1.9292 1.929016,3.001 0.428671,1.0001 0.678728,2.0001 0.750176,3.0006 0.07144,0.9288 0.107166,1.6072 0.107166,2.036 z M 44.486616,22.7493 c -0.571561,-0.3569 -1.143122,-0.6426 -1.714683,-0.8569 -0.214338,-0.0718 -0.500119,-0.1072 -0.857342,-0.1072 -0.714452,0 -1.464627,0.1784 -2.250521,0.5359 -0.714451,0.3569 -1.393179,0.7144 -2.036188,1.0713 -0.785894,0.4287 -1.500346,0.9287 -2.143354,1.5005 v 0.3216 c 0.14289,1.2144 0.500118,2.3934 1.071679,3.5365 0.643004,1.0718 1.571794,1.8575 2.786359,2.3575 0.28578,0.0718 0.678727,0.1071 1.178846,0.1071 1.214565,0 2.250521,-0.4287 3.107862,-1.2856 1.286013,-1.3575 1.929017,-3.0011 1.929017,-4.9299 0,-0.3574 -0.07144,-0.8933 -0.214333,-1.6077 z m 39.866378,49.2975 c 0,-1.5718 -0.500114,-2.6437 -1.500346,-3.215 l -2.572025,-0.9646 -3.000696,1.2861 c -0.357224,0.4283 -0.643004,0.8929 -0.857342,1.3929 -0.214333,0.4288 -0.321505,0.9288 -0.321505,1.5006 0,1.2144 0.428671,2.2149 1.286013,3.0006 0.857342,0.7143 1.82185,1.0718 2.89353,1.0718 1.143122,0 2.10763,-0.3575 2.893525,-1.0718 0.785899,-0.7857 1.178846,-1.7862 1.178846,-3.0006 z m -43.831582,-38.0444 -4.393876,1.5 4.501042,8.7879 4.608209,-8.7879 z m -8.251914,38.9018 c 0,-0.2861 -0.03572,-0.6077 -0.107166,-0.9646 -0.07145,-0.3574 -0.178614,-0.6072 -0.321504,-0.7503 l -1.071675,-0.4287 c -0.357228,-0.1431 -0.714452,-0.25 -1.07168,-0.3215 -0.357223,-0.0713 -0.714451,-0.1072 -1.071675,-0.1072 -0.357228,0 -0.714451,0.0359 -1.071679,0.1072 -0.357224,0.0715 -0.714452,0.1784 -1.071675,0.3215 -0.357228,0.1431 -0.750175,0.2857 -1.178846,0.4287 -0.142891,0.7144 -0.214333,1.2862 -0.214333,1.7149 0,1.0714 0.321499,2.0001 0.964508,2.7863 0.714452,0.7856 1.571793,1.179 2.572025,1.179 1.000232,0 1.857574,-0.3934 2.572026,-1.179 0.714449,-0.7862 1.071674,-1.7149 1.071674,-2.7863 z M 71.278535,31.1085 c -1.143118,0.8574 -2.321964,1.6436 -3.536534,2.358 -1.143118,0.643 -2.321964,1.1431 -3.536534,1.5 0.214338,0.7144 0.500119,1.3221 0.857342,1.8221 0.357228,0.4287 0.750175,0.8215 1.178846,1.179 0.500118,0.3569 1.107399,0.5354 1.82185,0.5354 h 0.214338 c 1.286013,-0.1426 2.214797,-0.857 2.786358,-2.1431 0.428671,-0.7144 0.643004,-1.6078 0.643004,-2.6791 0,-0.4287 -0.03572,-0.8574 -0.107166,-1.2862 -0.07144,-0.5 -0.178614,-0.9287 -0.321504,-1.2861 z m -4.286705,73.0885 -2.786363,-0.8572 1.929022,18.1111 0.857341,0.2144 z m -37.080019,10.9312 v 12.2172 h 2.036183 v -0.2143 l 1.07168,-12.0029 z m -2.250521,0 h -3.000696 l 1.178841,12.2172 h 1.821855 z m 51.654825,0.2144 h -3.322201 l 0.964508,10.0736 h 2.464859 z m 2.357687,0 v 10.0736 h 2.464859 l 0.857342,-10.0736 z m -10.288096,-8.7879 -1.714684,-0.6431 -0.214338,-1.3933 v 17.147 l 0.535843,-0.2144 1.393179,-12.5387 z m -32.04314,-1.179 -1.071675,1.7149 -1.178846,0.6431 -0.428671,6.2155 c 0.214333,0.0713 0.464394,0.1431 0.750175,0.2144 0.214333,0.0713 0.500114,0.1431 0.857342,0.2144 0.357223,0.143 0.75017,0.2856 1.178841,0.4287 z m -19.397352,-14.1459 -0.643004,11.1453 1.178842,2.3575 v -1.3928 c 0,-1.8575 0.14289,-3.6083 0.42867,-5.2514 0.357229,-1.6431 0.535838,-3.3934 0.535838,-5.2514 l -0.107167,-1.6072 z m 59.478067,19.9332 c 0,-0.5718 -0.03572,-1.1431 -0.107166,-1.7149 l -4.501044,-0.2143 -0.214336,3.7508 h 4.822546 z M 37.627882,91.2298 h -1.286013 c -0.07144,0.3569 -0.107166,0.6785 -0.107166,0.9646 v 0.7498 l 0.964508,10.1812 -0.107166,1.6072 1.178846,-2.1431 z m 52.405,0.9646 h -1.607517 l 0.964513,12.0026 0.107166,0.1069 0.107167,-0.1069 0.964508,-2.7865 z m -18.968681,0 -0.428671,9.2161 0.750176,2.7865 c 0.14289,0 0.214333,0.0356 0.214333,0.1069 h 0.107166 l 0.107172,-0.1069 0.75017,-12.0026 z m 15.324981,17.8968 c -0.785899,0 -1.571793,-0.0359 -2.357693,-0.1072 -0.785894,-0.0713 -1.571789,-0.1784 -2.357687,-0.3215 v 3.3221 h 4.929713 z m -12.645789,5.2514 h -0.535837 l -0.643009,5.6796 1.821855,1.179 z m -17.682668,-36.2228 -1.714683,-0.3216 1.500345,3.9652 0.643009,0.2144 z"
       style="stroke-width:1pt"
       inkscape:connector-curvature="0" />
    <path
       id="path2789"
       d="m 187.06185,92.1946 c 1.45198,7.0463 -0.76618,13.0936 -3.46916,18.9717 0.78347,4.1625 -3.31211,6.6127 -2.15466,11.4393 -3.30646,5.288 11.68402,7.0419 3.15474,10.0952 -4.70466,-1.016 -9.64782,-2.5599 -14.4127,-0.8741 -2.65176,1.7215 -9.17751,0.4874 -5.32294,-2.956 7.41006,-2.6935 -3.73868,-3.9747 -6.35272,-2.4077 -2.33359,1.0446 -10.38523,2.3497 -5.06564,-1.4313 8.02192,-3.0081 3.46818,-11.4853 3.56253,-17.9413 0.0902,-3.3309 -0.36723,-4.9391 -3.52703,-5.6464 -1.55971,-4.6581 -1.10273,-9.8514 -1.8635,-14.7307 -0.11608,-2.0688 -4.28765,-1.7831 -3.87948,-5.1291 -2.5156,4.029 -1.06252,10.2279 -2.07629,15.1031 -0.45102,6.0397 -0.90203,12.0795 -1.35305,18.1193 -4.77076,2.2218 10.08525,4.4376 6.216,8.6226 -4.30706,1.291 -9.28964,-1.8963 -13.9231,-2.1021 -5.6801,-1.8935 -10.97283,4.9395 -4.80455,8.39 4.72885,2.4133 0.90356,5.4893 -2.76913,3.5193 -5.10932,-2.7085 -12.37467,2.3118 -15.94709,-0.6695 3.11903,-3.3143 7.13573,-6.3197 4.66845,-11.6974 -0.10091,-5.1647 -2.817,-8.0054 -2.85438,-13.3196 -5.65887,-3.7747 -1.01238,-12.3178 -3.16216,-16.3605 -0.75714,-4.2132 0.61751,-10.9068 6.2846,-11.2749 6.40269,0.3504 -0.0491,3.2315 -2.82073,3.5378 -2.22664,3.1256 -1.07044,7.8499 2.4944,3.8122 1.16112,3.3899 0.19128,8.3557 6.20277,6.3226 5.69804,1.8998 4.58555,-2.9333 5.44756,-6.3135 1.70466,1.2812 5.05959,2.9453 3.6227,-1.1032 1.39385,-5.0937 -9.91625,-2.9581 -5.90661,-6.4834 3.18265,-0.4143 8.68648,5.4118 7.14573,-0.844 1.90486,-5.8882 -5.23747,2.0491 -3.90664,-3.3068 0.92644,-3.027 -1.58904,-7.4802 -0.99268,-1.9296 -0.18174,9.2257 -15.77651,4.4031 -11.14407,-3.3819 -3.63052,0.9074 0.50271,11.323 -5.28071,5.8975 -4.14332,-6.165 7.91372,-6.1258 4.39562,-12.4157 -0.38371,-8.9726 -0.76741,-17.9454 -1.15111,-26.9179 4.58405,-1.6194 12.60322,-2.7277 15.04674,-4.6651 -6.2791,-4.2539 -3.30788,-16.7184 4.84124,-15.9748 9.2567,1.0241 6.71032,13.1526 4.22472,16.8036 4.56599,1.8506 12.52131,1.4654 14.69357,5.2836 -2.13558,5.5197 2.90253,2.2573 5.04054,3.8358 -2.62092,4.3174 0.003,10.2111 5.43754,7.7532 3.10621,-3.1678 -2.56519,-11.2907 4.95999,-7.8481 5.7418,-0.1087 8.30481,2.6325 7.61821,8.288 0.70495,5.2681 0.6696,10.7327 1.85176,15.8739 2.49379,4.1772 1.61601,9.1674 -1.70679,12.0931 6.25269,0.252 9.612,4.5858 9.59735,10.6802 -0.27146,1.3261 2.25934,4.0244 -0.65984,3.2826 z M 134.22819,47.6122 c -2.94114,-3.1699 -3.36226,-12.4277 -8.25952,-10.7604 -5.47303,-0.2657 -8.95858,3.3975 -6.99991,8.736 0.29962,7.3548 0.59929,14.7098 0.89891,22.0649 4.5417,-4.5204 0.81925,-13.3919 2.0362,-19.6273 -1.31753,-2.9602 1.49662,-9.1226 2.54375,-3.6759 0.5324,7.4424 -1.47904,16.4152 1.03408,22.8832 3.93738,3.6779 11.1867,2.0042 8.74649,-4.4418 0,-5.0598 0,-10.119 0,-15.1787 z m 50.15446,36.2229 c -4.17789,-4.8562 -13.83169,-4.6397 -18.23121,-0.2574 -1.42973,2.3698 -1.68417,9.3141 1.90308,5.0521 -1.83528,-4.0276 4.26836,-2.8062 1.90202,0.6508 0.0839,5.623 -2.32302,13.3561 -0.68456,17.6628 3.83177,-0.5353 11.35495,2.6011 12.74628,-0.3623 -0.56931,-6.8314 -1.13868,-13.6635 -1.70799,-20.4955 3.49314,-1.9404 2.34445,7.3921 5.36021,2.7501 -0.24314,-1.6982 -0.99142,-3.2975 -1.28783,-5.0006 z M 147.40981,37.4319 c -6.90784,-4.1382 -9.30375,7.4839 -10.82399,12.1004 0.7487,6.0795 -1.51012,14.3416 1.15209,19.0316 3.82794,0.9607 9.70025,5.0165 8.44948,-1.7114 0.69327,-7.807 1.3865,-15.6131 2.07972,-23.4198 5.91406,0.0203 5.61459,-5.9972 -0.8573,-6.0008 z m -10.82399,33.5433 c 0,14.6105 0,29.2209 0,43.8314 8.41082,-0.3391 5.05625,-10.0895 6.3858,-15.7106 0.62204,-8.4088 1.24408,-16.8185 1.86612,-25.2275 -2.75062,-0.9641 -5.50124,-1.9287 -8.25192,-2.8933 z M 161.3416,58.7577 c -2.99456,-4.1937 -4.79353,-10.9014 -5.44486,-14.5705 -7.53701,-0.1481 -5.43229,8.1286 -6.34079,13.0804 -0.5725,6.3192 -1.14498,12.639 -1.71747,18.9587 5.96956,1.4092 2.73005,-7.0904 3.91097,-10.4745 0.26813,-4.8677 0.53624,-9.7352 0.80437,-14.603 4.94737,0.2863 0.99096,7.9454 1.8522,11.3838 -0.26014,4.7428 -0.52034,9.4861 -0.78049,14.2297 4.85195,0.9843 8.53628,-2.6049 5.39953,-6.9665 -0.29136,-3.8172 1.00037,-7.5186 2.31654,-11.0381 z m 13.61029,-13.2882 c -3.3283,-0.6295 -7.18119,-2.5226 -6.15813,2.4695 -1.51774,7.7784 -8.37474,14.1233 -7.31515,22.4453 -0.23578,4.8082 12.22431,9.7856 7.45179,3.213 -0.37482,-4.226 1.26556,-7.2062 2.32077,-10.0334 0.53407,-3.7426 -2.56332,-11.1629 0.97356,-12.3273 3.09837,3.5515 -1.16423,12.7147 3.17949,13.9752 3.10405,-3.9587 -0.7626,-11.3933 -0.16353,-16.6336 -0.0963,-1.036 -0.19253,-2.0725 -0.2888,-3.1087 z m -5.25124,33.6501 c -5.00743,-2.2722 -10.20181,-0.9806 -15.11944,-0.2324 -2.06341,5.2774 0.61558,11.9729 0.41592,17.8075 -1.2708,3.8839 7.54621,5.8323 8.2086,3.9388 1.02101,-6.7661 -2.00063,-10.4155 0.67482,-17.0828 0.29498,-3.3596 3.04992,-3.9581 5.8201,-4.4311 z m -40.29503,32.7936 c -0.6437,-5.1307 3.40745,-16.9842 -4.47428,-15.9679 -3.79124,-0.2002 -8.07435,-0.9026 -7.18107,4.2921 -0.75328,5.1339 -1.73282,15.0979 6.4293,12.5328 0.98304,-0.5792 5.88972,1.1267 5.22605,-0.857 z M 168.95047,35.181 c -0.81927,7.8287 -11.62093,6.6607 -13.29284,0.0017 -1.94621,-5.6048 4.81861,-12.889 10.37347,-9.0906 2.50749,1.071 6.53823,8.2024 2.91937,9.0889 z M 139.26508,22.7493 c -6.9261,-5.1624 -12.88615,8.6387 -3.55683,8.5175 3.49691,-0.4907 6.33814,-5.745 3.55683,-8.5175 z m 39.86634,49.2975 c -0.62527,-8.6567 -13.5723,-0.7179 -5.83082,3.7227 2.5441,1.6038 6.03804,-0.8345 5.83082,-3.7227 z M 135.29985,34.0026 c -7.52955,0.3403 -1.27025,6.5537 0.10716,10.2875 1.22088,-4.5696 8.66454,-9.6235 -0.10716,-10.2875 z m -8.25192,38.9017 c -1.79393,-7.1105 -12.38654,2.1496 -4.11373,3.9536 2.20334,0.311 4.22199,-1.8 4.11373,-3.9536 z m 39.00904,-41.796 c -3.41357,1.3754 -10.45079,6.3337 -2.82386,7.3742 3.16053,-0.6025 3.83259,-4.8351 2.82386,-7.3742 z m -4.28671,73.0887 c -5.58406,-2.0306 -0.75096,7.7952 -1.54454,10.8021 -0.22927,2.4879 1.49383,9.8064 1.5575,3.6313 -0.0776,-4.7921 0.0286,-9.6241 -0.013,-14.4334 z m -37.08002,10.931 c 0.86395,3.7309 -1.83137,11.023 1.54643,12.2799 1.02412,-3.4962 1.96394,-9.7752 0.78447,-12.2799 -0.77697,0 -1.55393,0 -2.3309,0 z m -2.25051,0 c -6.07191,-0.475 -0.88655,8.6483 -1.82184,12.2175 4.08186,-0.5104 0.70179,-8.9787 1.82184,-12.2175 z m 51.65481,0.2146 c -5.77697,-1.4146 -2.60952,8.6046 -1.37781,10.2779 3.22443,-0.8547 0.59467,-7.7202 1.37781,-10.2779 z m 2.35771,0 c 0.22869,2.5876 -1.28426,13.6898 2.63654,8.7345 -0.70231,-3.2402 3.31376,-10.5235 -2.63654,-8.7345 z m -10.28814,-8.7877 c -4.05744,-3.5274 -0.97287,6.3116 -1.92901,8.7927 -0.35153,3.243 0.3221,9.0988 0.91328,2.7498 0.25196,-3.8467 1.13972,-7.6663 1.01573,-11.5425 z M 134.121,105.3755 c -2.93122,1.7348 -4.34581,10.3513 0.0987,8.5563 -0.0357,-2.8522 -0.0655,-5.7044 -0.0987,-8.5563 z M 114.72366,91.2299 c 0.27896,4.2142 -1.67919,9.0292 0.33219,12.8412 -0.54871,-3.3984 3.21607,-11.6408 -0.33219,-12.8412 z m 59.47807,19.9332 c -0.71404,-5.8898 -9.1427,1.9565 -2.31077,1.9214 1.70522,-0.1431 2.76533,0.4052 2.31077,-1.9214 z M 132.4063,91.2299 c -3.40133,2.6354 0.613,9.3145 -0.53581,13.5027 2.43894,-3.9582 0.15592,-9.1176 0.53581,-13.5027 z m 52.40498,0.9647 c -3.31381,0.8401 -0.30774,10.8819 -0.20622,11.4298 1.49151,-3.6721 0.0679,-7.6309 0.20622,-11.4298 z m -18.96866,0 c 0.12717,3.0721 -1.39371,11.4479 0.83534,11.0653 -0.73769,-3.0813 2.47024,-10.5746 -0.83534,-11.0653 z m 15.325,17.8964 c -6.13211,-2.7606 -5.59023,5.5065 0.0533,2.6325 0.62531,-0.8149 -0.40195,-1.7521 -0.0533,-2.6325 z m -12.64581,5.2516 c -3.01216,2.3591 1.09509,10.3154 0.32945,3.5803 -0.0992,-1.195 -0.22049,-2.387 -0.32945,-3.5803 z m -17.68265,-36.223 c -3.89396,-1.7798 1.68202,7.5285 0.19067,1.646 -0.0467,-0.2391 -0.17384,-1.3364 -0.19067,-1.646 z"
       style="stroke-width:1pt"
       inkscape:connector-curvature="0" />
    <path
       id="path2795"
       d="m 281.84025,92.1946 c 1.73454,10.2423 -3.7675,20.2327 -6.79046,29.3799 2.76279,4.4226 9.2809,12.6354 -1.06537,9.64 -5.65209,-0.3099 -16.36594,3.8161 -14.05213,-4.6042 -2.83855,-3.1815 -14.35087,4.4583 -10.78096,-2.8403 7.70502,-6.5417 2.34057,-17.8425 -1.35696,-25.2286 -0.62385,-4.229 -1.20979,-17.5849 -6.1445,-13.7174 -1.70712,8.9951 -0.9698,18.2687 -2.47299,27.315 -1.28846,4.2467 10.98213,12.5895 0.7126,11.0095 -6.98067,-4.4344 -21.11179,-1.2233 -12.58182,8.345 -2.14736,3.3964 -10.61125,0.3629 -15.3001,1.6681 -4.67962,-3.0232 4.88903,-11.4906 -0.25129,-17.1619 -3.71014,-9.716 -6.6791,-20.3305 -4.78754,-30.6906 0.0704,-6.5467 11.77967,-4.8467 3.22629,-1.6705 -2.73342,6.0454 9.88261,15.0081 14.39402,6.8409 -0.61137,-3.7514 6.13879,-2.573 1.1194,-6.6952 -7.6887,-5.0893 5.25891,-0.1494 2.74115,-6.2025 -4.7532,1.0886 -3.59054,-9.1622 -5.01249,-1.0201 -4.16365,7.9487 -12.66009,-7.6721 -12.142,-1.3173 -9.6493,2.9406 4.69652,-10.8409 1.30646,-16.4791 0.20707,-7.5759 -6.00791,-18.798 2.7266,-23.543 7.60361,1.2535 10.78795,-5.2964 6.963,-11.0797 -0.14918,-8.6193 14.65285,-11.1337 14.67901,-1.3712 -2.39512,7.5619 1.5148,13.5297 9.57899,13.3678 6.75975,1.8074 6.21896,18.3869 14.22242,12.035 -0.6296,-12.0425 13.9702,-5.3595 12.73751,2.9355 -1.95566,7.935 3.39195,15.4025 1.73607,23.2969 -1.89846,6.0141 12.28227,9.7306 7.26508,17.8318 -0.22332,-0.0143 -0.66999,-0.0438 -0.66999,-0.0438 z M 229.00657,47.6122 c -0.0826,-7.1503 -11.88448,-16.2009 -14.99807,-6.2132 -1.18219,8.0354 0.92261,16.1784 0.58401,24.281 4.01452,-0.0523 1.66556,-12.9186 1.63265,-17.9562 2.70187,-10.2509 4.49492,8.1316 2.30074,12.2685 -3.02356,10.5916 14.842,10.9489 10.97704,0.2046 -0.61555,-4.1607 -0.83686,-8.3886 -0.49637,-12.5847 z m 50.15447,36.2229 c -4.32566,-8.3686 -23.70959,-1.3583 -16.93225,4.7285 5.77651,-3.0428 -0.90647,10.3262 1.5326,13.8988 2.22435,10.396 17.00314,5.3306 12.8538,-4.4854 -2.25601,-4.4034 -1.86806,-13.59 3.45393,-9.0254 0.2652,-1.7703 -0.40336,-3.4644 -0.90808,-5.1165 z M 242.1882,37.4319 c -8.85638,-1.8367 -10.79106,9.5207 -10.69699,16.0082 -2.86526,5.9992 1.15576,21.9392 9.02233,14.3388 1.93957,-7.8492 1.30252,-16.2765 2.53201,-24.3462 5.97286,1.4284 4.07639,-7.9405 -0.85735,-6.0008 z m -10.82392,33.5433 c -1e-5,14.6105 -1e-5,29.2209 -1e-5,43.8314 8.54669,-2.1123 5.7792,-12.6692 6.35672,-19.118 -0.98282,-7.7491 6.6065,-20.034 -3.23106,-23.8924 -0.51321,-0.148 -2.59695,-0.6954 -3.12565,-0.821 z m 24.75577,-12.2175 c -2.35541,-3.9014 -6.18549,-19.1788 -10.90339,-9.3378 -1.06707,7.9842 -1.56617,16.1141 -2.10188,24.152 5.9315,1.0682 2.38563,-12.0475 3.50437,-16.8715 2.5354,-9.6356 4.52509,4.4799 2.28815,7.9483 -3.22531,5.0416 2.82084,17.7622 5.6388,7.0025 1.03965,-4.3655 -2.08466,-9.1963 1.57395,-12.8935 z m 13.61029,-13.2882 c -9.5137,-2.0656 -7.17594,11.2805 -11.88553,15.9504 -6.0271,4.7169 2.29363,20.5441 6.48271,11.1206 1.23266,-6.2616 0.24459,-14.0108 2.89445,-19.2329 1.3574,2.7378 2.04758,14.5881 3.93733,5.9692 0.15257,-4.6618 -1.94298,-9.1314 -1.42896,-13.8073 z m -5.25124,33.6501 c -6.44249,-3.6027 -17.88414,-1.2554 -15.83688,8.0976 -2.74608,6.3991 6.50628,20.1952 9.66866,8.9625 -0.7898,-6.0701 -2.55098,-16.0708 6.16822,-17.0601 z m -40.29503,32.7936 c 2.31244,-6.5524 -0.27765,-21.3018 -9.81829,-14.8791 -6.98572,6.5754 -0.11983,21.8964 9.81829,14.8791 z M 263.72892,35.181 c -0.72315,8.4828 -14.80861,5.4647 -13.97534,-2.306 -0.31404,-9.7021 15.26066,-9.8288 15.18998,-0.2748 -0.12384,0.4402 -0.93355,2.1608 -1.21464,2.5808 z M 234.04348,22.7493 c -8.50582,-7.3293 -9.63261,15.3254 -0.44546,6.6933 1.61207,-1.7593 2.31086,-4.8396 0.44546,-6.6933 z m 39.86637,49.2975 c -1.74214,-10.5859 -13.82263,6.942 -2.44397,3.8609 1.46226,-0.6652 2.5562,-2.2152 2.44397,-3.8609 z M 230.07828,34.0026 c -8.89296,0.8542 3.09962,14.8144 3.78794,4.0934 1.18351,-2.2613 -1.45278,-5.0394 -3.78794,-4.0934 z m -8.25192,38.9017 c -3.01964,-8.5046 -10.10498,8.3043 -1.34389,3.0408 0.89663,-0.7313 1.35978,-1.9013 1.34389,-3.0408 z m 39.00902,-41.796 c -8.66428,-1.5257 -1.7709,13.2363 0.41312,3.0823 -0.0143,-0.521 -0.28973,-2.5757 -0.41312,-3.0823 z m -4.28669,73.0887 c -6.90464,1.8002 1.37282,20.5762 0.0241,8.496 -0.0133,-2.8318 -0.0713,-5.664 -0.0241,-8.496 z m -37.08001,10.931 c -1.71279,4.4473 1.42214,14.82 2.99441,5.1431 0.48132,-2.1762 -0.16132,-5.2367 -2.99441,-5.1431 z m -2.25051,0 c -7.7312,-0.0512 0.73931,16.7204 0.0603,5.5358 -0.25841,-1.8242 -0.57315,-3.717 -0.0603,-5.5358 z m 51.65481,0.2146 c -8.43171,-1.4398 1.05663,15.2382 0.0385,3.955 -0.15412,-1.3092 -0.28543,-2.6463 -0.0385,-3.955 z m 2.35772,0 c -3.25189,4.6683 3.5035,12.2972 3.26833,3.4441 0.41612,-1.9592 -0.74528,-5.126 -3.26833,-3.4441 z m -10.28814,-8.7877 c -5.46688,1.619 -0.50264,18.1478 -0.56601,7.5927 0.30896,-2.5193 0.57033,-5.0514 0.56601,-7.5927 z m -32.0431,-1.1794 c -6.25882,0.2851 0.77565,12.7139 0.0404,3.5135 -0.023,-1.1707 -0.0196,-2.3421 -0.0404,-3.5135 z M 209.5021,91.2299 c -1.29327,4.6757 0.17836,15.0242 1.52441,4.8823 0.30778,-1.7371 -0.0346,-3.7487 -1.52441,-4.8823 z m 59.47806,19.9332 c -3.09278,-6.3548 -5.40422,6.7483 -0.15624,1.288 0.0521,-0.4294 0.15624,-1.288 0.15624,-1.288 z M 227.18473,91.2299 c -4.53101,4.083 1.95767,15.7247 0.29293,5.0776 -0.20931,-1.6825 -0.42227,-3.3793 -0.29293,-5.0776 z m 52.40499,0.9647 c -5.3482,2.1627 2.07383,13.9927 0.24733,4.1561 -0.15142,-1.3796 -0.28666,-2.7662 -0.24733,-4.1561 z m -18.96866,0 c -1.31505,2.8262 0.22678,13.6225 1.42598,5.0558 0.36182,-1.7269 0.27548,-4.0362 -1.42598,-5.0558 z m 15.32501,17.8964 c -6.56096,-4.0309 -0.91358,9.0528 0,0 z m -12.64583,5.2516 c -3.38001,3.2529 2.59904,7.4997 0,0 z M 245.6176,79.1196 c -3.62582,2.1663 3.8363,3.8742 0,0 z"
       style="stroke-width:1pt"
       inkscape:connector-curvature="0" />
  </g>
</svg>
