<?xml version="1.0" encoding="UTF-8" standalone="no"?>
<svg
   xmlns:dc="http://purl.org/dc/elements/1.1/"
   xmlns:cc="http://creativecommons.org/ns#"
   xmlns:rdf="http://www.w3.org/1999/02/22-rdf-syntax-ns#"
   xmlns:svg="http://www.w3.org/2000/svg"
   xmlns="http://www.w3.org/2000/svg"
   xmlns:sodipodi="http://sodipodi.sourceforge.net/DTD/sodipodi-0.dtd"
   xmlns:inkscape="http://www.inkscape.org/namespaces/inkscape"
   sodipodi:docname="advanced-f05.svg"
   inkscape:version="1.0beta1 (459877fba3, 2019-11-14)"
   sodipodi:version="0.32"
   id="svg1945"
   viewBox="0 0 300 71"
   height="71"
   width="300"
   version="1.1">
  <defs
     id="defs3" />
  <sodipodi:namedview
     inkscape:window-maximized="0"
     inkscape:window-y="27"
     inkscape:window-x="54"
     inkscape:window-height="1053"
     inkscape:window-width="1866"
     inkscape:guide-bbox="true"
     showguides="true"
     units="px"
     showgrid="false"
     inkscape:document-rotation="0"
     inkscape:current-layer="layer1"
     inkscape:document-units="px"
     inkscape:cy="-32.807981"
     inkscape:cx="278.65185"
     inkscape:zoom="1.4"
     inkscape:pageshadow="2"
     inkscape:pageopacity="0.0"
     borderopacity="1.0"
     bordercolor="#666666"
     pagecolor="#ffffff"
     id="base"
     inkscape:lockguides="true" />
  <metadata
     id="metadata4">
    <rdf:RDF>
      <cc:Work
         rdf:about="">
        <dc:format>image/svg+xml</dc:format>
        <dc:type
           rdf:resource="http://purl.org/dc/dcmitype/StillImage" />
        <dc:title />
      </cc:Work>
    </rdf:RDF>
  </metadata>
  <g
     id="layer1"
     inkscape:groupmode="layer"
     inkscape:label="Layer 1">
    <path
       id="path1796"
       d="m 162.86771,61.9866 -26.12178,-11.3207 -3.86217,19.9655 -7.4357,-27.4812 -18.01771,9.4287 16.84959,-22.9477 -18.60554,-8.2081 28.44679,-1.1341 -5.18303,-19.664 18.62297,21.5334 12.14244,-16.3125 -5.22429,27.9859 20.32434,-0.6774 -25.13756,13.3644 z M 192.6796,52.5579 C 187.91338,65.0532 170.89508,70.1784 154.69234,63.998 138.4896,57.8176 129.2078,42.6605 133.97402,30.1652 c 4.76628,-12.4955 21.78453,-17.6205 37.98727,-11.4401 16.20274,6.1804 25.48459,21.3373 20.71831,33.8328 z"
       style="fill:#07ba88;fill-opacity:0.75;fill-rule:evenodd;stroke:#000000;stroke-width:1pt"
       inkscape:connector-curvature="0" />
  </g>
</svg>
